<?xml version="1.0" encoding="utf-8"?>
<!-- Generator: Adobe Illustrator 24.2.0, SVG Export Plug-In . SVG Version: 6.00 Build 0)  -->
<svg version="1.1" id="Layer_1" xmlns="http://www.w3.org/2000/svg" xmlns:xlink="http://www.w3.org/1999/xlink" x="0px" y="0px"
	 viewBox="0 0 416.03 448" style="enable-background:new 0 0 416.03 448;" xml:space="preserve">
<g>
	<g>
		<path d="M208.01,224c-52.87,0-99.51-49.72-103.96-110.84c-2.25-30.98,7.32-59.66,26.95-80.78C150.43,11.5,177.77,0,208.01,0
			c30.04,0,57.33,11.57,76.84,32.58c19.76,21.28,29.39,49.9,27.11,80.6c0,0,0,0,0,0C307.43,174.29,260.8,224,208.01,224z M208.01,32
			c-21.25,0-40.27,7.88-53.57,22.18c-13.51,14.53-20.07,34.65-18.47,56.66c3.2,43.99,36.19,81.16,72.04,81.16
			c35.79,0,68.78-37.18,72.04-81.18v0c1.61-21.72-5.01-41.77-18.65-56.46C248.01,39.94,229.05,32,208.01,32z M296.01,112L296.01,112
			L296.01,112z"/>
	</g>
	<g>
		<path d="M384.01,448h-352c-9.61,0-18.2-3.95-24.2-11.13c-6.5-7.78-9.12-18.39-7.19-29.11c8.44-46.82,34.79-86.15,76.19-113.75
			C113.59,269.5,160.18,256,208.01,256c47.83,0,94.42,13.5,131.19,38.01c41.4,27.6,67.75,66.93,76.2,113.75
			c1.93,10.72-0.68,21.33-7.18,29.11C402.22,444.05,393.62,448,384.01,448z M32.21,416h351.62c0.16-0.46,0.31-1.34,0.09-2.56
			c-6.87-38.05-28.47-70.14-62.46-92.8C289.88,299.59,249.59,288,208.01,288c-41.58,0-81.87,11.59-113.44,32.64
			c-33.99,22.66-55.59,54.75-62.45,92.8C31.89,414.66,32.05,415.53,32.21,416z M31.77,415.98L31.77,415.98L31.77,415.98z
			 M384.25,415.98L384.25,415.98L384.25,415.98z"/>
	</g>
</g>
</svg>
