<?xml version="1.0" encoding="utf-8"?>
<!-- Generator: Adobe Illustrator 24.2.0, SVG Export Plug-In . SVG Version: 6.00 Build 0)  -->
<svg version="1.1" id="Layer_1" xmlns="http://www.w3.org/2000/svg" xmlns:xlink="http://www.w3.org/1999/xlink" x="0px" y="0px"
	 viewBox="0 0 415.05 415.05" style="enable-background:new 0 0 415.05 415.05;" xml:space="preserve">
<style type="text/css">
	.st0{fill:#FFFFFF;}
	.st1{fill:#00B3E3;}
</style>
<path class="st0" d="M408.69,373.39L314.6,279.3c22.65-30.16,34.88-66.86,34.84-104.58C349.44,78.38,271.06,0,174.72,0
	S0,78.38,0,174.72s78.38,174.72,174.72,174.72c37.72,0.04,74.42-12.19,104.58-34.84l94.09,94.09c10.29,9.2,26.1,8.32,35.3-1.98
	C417.17,397.22,417.17,382.88,408.69,373.39L408.69,373.39z M49.92,174.72c0-68.93,55.87-124.8,124.8-124.8s124.8,55.87,124.8,124.8
	s-55.87,124.8-124.8,124.8C105.83,299.44,50,243.61,49.92,174.72z"/>
<circle class="st1" cx="174.72" cy="174.72" r="96.28"/>
</svg>
